\begin{thebibliography}{1}

\bibitem{slic}
R.~Achanta, K.~Smith, A.~Lucchi, P.~Fua, and S.~Susstrunk.
\newblock Slic superpixels.
\newblock {\em Technical report, EPFL, Tech.Rep. 149300}, 2010.

\bibitem{image_retargeting}
Shai Avidan and Ariel Shamir.
\newblock Image retargeting.
\newblock {\em Seam carving noto anche come image retargeting,
  ridimensionamento delle immagini content-aware, {\`E} un algoritmo per il
  ridimensionamento delle immagini, sviluppato da Shai Avidan, di Mitsubishi
  Electric Research Laboratories (MERL), e Ariel Shamir, del Centro
  Interdisciplinare e MERL.}

\bibitem{zhou2003scholkopf}
D.Zhou, O.Bousquet, T.Lal, J.Weston, and andB.
\newblock Scholkopf.
\newblock 2003.

\bibitem{perazzi_et_al}
F.Perazzi, P.Krahenbuhl, Y.Pritch, and andA.Hornung.
\newblock Saliencyfilters: Contrast based filtering for salient region
  detection.
\newblock {\em In CVPR}, 2012.

\bibitem{gopalakrishnan_et_al}
V.~Gopalakrishnan, Y.~Hu, , and D.~Rajan.
\newblock Random walks on graphs for salient object detection in images.
\newblock {\em IEEE TIP}, 2010.

\bibitem{liu_et_al}
T.~Liu, Z.~Yuan, J.~Sun, J.~Wang, N.~Zheng, X.~Tang, , and H.~Shum.
\newblock Learning to detect a salient object.
\newblock {\em IEEE PAMI}, 2011.

\bibitem{torralba_et_al}
T.Judd, K.Ehinger, F.Durand, and andA.Torralba.
\newblock Learning to predict where humans look.
\newblock {\em In ICCV}, 2009.

\bibitem{wang_et_al}
L.~Wang, J.~Xue, N.~Zheng, , and G.~Hua.
\newblock Automatic salient object extraction with contextual cue.
\newblock {\em In ICCV}, 2011.

\end{thebibliography}
